\relax 
\providecommand\hyper@newdestlabel[2]{}
\providecommand\HyperFirstAtBeginDocument{\AtBeginDocument}
\HyperFirstAtBeginDocument{\ifx\hyper@anchor\@undefined
\global\let\oldcontentsline\contentsline
\gdef\contentsline#1#2#3#4{\oldcontentsline{#1}{#2}{#3}}
\global\let\oldnewlabel\newlabel
\gdef\newlabel#1#2{\newlabelxx{#1}#2}
\gdef\newlabelxx#1#2#3#4#5#6{\oldnewlabel{#1}{{#2}{#3}}}
\AtEndDocument{\ifx\hyper@anchor\@undefined
\let\contentsline\oldcontentsline
\let\newlabel\oldnewlabel
\fi}
\fi}
\global\let\hyper@last\relax 
\gdef\HyperFirstAtBeginDocument#1{#1}
\providecommand\HyField@AuxAddToFields[1]{}
\providecommand\HyField@AuxAddToCoFields[2]{}
\@writefile{toc}{\contentsline {section}{\numberline {I}Target domain}{1}{section.1}}
\@writefile{toc}{\contentsline {section}{\numberline {II}List of abilities of the system}{1}{section.2}}
\@writefile{toc}{\contentsline {section}{\numberline {III}Relational data model}{1}{section.3}}
\@writefile{toc}{\contentsline {section}{\numberline {IV}SQL statement}{2}{section.4}}
\@writefile{toc}{\contentsline {section}{\numberline {V}How will the data be loaded}{5}{section.5}}
\@writefile{toc}{\contentsline {section}{\numberline {VI}View of the system}{5}{section.6}}
\@writefile{toc}{\contentsline {section}{\numberline {VII}Focus topics}{5}{section.7}}
\@writefile{toc}{\contentsline {section}{\numberline {VIII}Platform}{6}{section.8}}
